[{
		"address": {
			"city": "Tel Aviv",
			"name": "Florentin",
			"number": 25
		},
		"age": 27,
		"id": 123,
		"name": "AdamEmployee",
		"smoke": false
	}, {
		"address": {
			"city": "Holon",
			"name": "Itzahc Rabyin",
			"number": 69
		},
		"age": 24,
		"id": 122,
		"name": "omriManager",
		"smoke": false
	}
]